…
``` r
tibble( 
  authors = pages |>  
    map(html_elements, "h2") |>  
    map_chr(html_text2), 
  articleTitle = pages |>  
    map(html_element, "h1") |>  
    map_chr(html_text2), 
  articleAbstract = pages |>  
    map(html_element, "p") |>  
    map_chr(html_text2) 
) 
```

    ## # A tibble: 53 × 3
    ##    authors                                 articleTitle          articleAbstract
    ##    <chr>                                   <chr>                 <chr>          
    ##  1 Ruiyuan Chen                            A Gelfand duality fo… "We prove that…
    ##  2 Nima Rasekh                             A Model for the High… "We use fibrat…
    ##  3 Violeta Borges Marques and Arne Mertens The category of neck… "In the first …
    ##  4 Sebastian Halbig and Tony Zorman        Pivotality, twisted … "Finite-dimens…
    ##  5 Julien Bichon                           Twisted separability… "Twisted separ…
    ##  6 Enrico M. Vitale                        Completion under str… "For A a categ…
    ##  7 Philippe Gaucher                        Directed degeneracy … "Symmetric tra…
    ##  8 Graham Manuell                          Uniform locales and … "Much work has…
    ##  9 Guillermo Cortiñas, Devarshi Mukherjee  A Quillen model stru… "In this note,…
    ## 10 Seerp Roald Koudenburg                  Formal category theo… "In this artic…
    ## # ℹ 43 more rows
…
